HW 03
…
covid_survey_longer

# A tibble: 43,428 × 5
   response_id explanatory    explanatory_value response          response_value
         <dbl> <chr>          <chr>             <chr>                      <dbl>
 1           1 exp_profession Nursing           resp_safety                    5
 2           1 exp_profession Nursing           resp_confidence_…              2
 3           1 exp_profession Nursing           resp_concern_saf…              2
 4           1 exp_profession Nursing           resp_feel_safe_a…              1
 5           1 exp_profession Nursing           resp_will_recomm…              1
 6           1 exp_profession Nursing           resp_trust_info                1
 7           1 exp_flu_vax    Yes               resp_safety                    5
 8           1 exp_flu_vax    Yes               resp_confidence_…              2
 9           1 exp_flu_vax    Yes               resp_concern_saf…              2
10           1 exp_flu_vax    Yes               resp_feel_safe_a…              1
# ℹ 43,418 more rows

covid_survey_summary_stats_by_group <- covid_survey_longer %>%
  group_by(explanatory, explanatory_value, response) %>%
  summarise(
    mean = mean(response_value, na.rm = TRUE),
    low = quantile(response_value, 0.10, na.rm = TRUE),
    high = quantile(response_value, 0.90, na.rm = TRUE),
    .groups = "drop"
  )

covid_survey_summary_stats_by_group

# A tibble: 126 × 6
   explanatory explanatory_value response                 mean   low  high
   <chr>       <chr>             <chr>                   <dbl> <dbl> <dbl>
 1 exp_age_bin 21-25             resp_concern_safety      3.32     2     5
 2 exp_age_bin 21-25             resp_confidence_science  1.31     1     2
 3 exp_age_bin 21-25             resp_feel_safe_at_work   1.20     1     2
 4 exp_age_bin 21-25             resp_safety              1.95     1     5
 5 exp_age_bin 21-25             resp_trust_info          1.29     1     2
 6 exp_age_bin 21-25             resp_will_recommend      1.09     1     1
 7 exp_age_bin 26-30             resp_concern_safety      3.35     1     5
 8 exp_age_bin 26-30             resp_confidence_science  1.40     1     2
 9 exp_age_bin 26-30             resp_feel_safe_at_work   1.29     1     2
10 exp_age_bin 26-30             resp_safety              2.16     1     5
# ℹ 116 more rows
…
covid_survey_summary_stats <- bind_rows(
  covid_survey_summary_stats_all,
  covid_survey_summary_stats_by_group
)

covid_survey_summary_stats

# A tibble: 132 × 6
   response                 mean   low  high explanatory explanatory_value
   <chr>                   <dbl> <dbl> <dbl> <chr>       <chr>            
 1 resp_concern_safety      3.28     1     5 All         ""               
 2 resp_confidence_science  1.43     1     2 All         ""               
 3 resp_feel_safe_at_work   1.36     1     2 All         ""               
 4 resp_safety              2.03     1     5 All         ""               
 5 resp_trust_info          1.40     1     2 All         ""               
 6 resp_will_recommend      1.21     1     2 All         ""               
 7 resp_concern_safety      3.32     2     5 exp_age_bin "21-25"          
 8 resp_confidence_science  1.31     1     2 exp_age_bin "21-25"          
 9 resp_feel_safe_at_work   1.20     1     2 exp_age_bin "21-25"          
10 resp_safety              1.95     1     5 exp_age_bin "21-25"          
# ℹ 122 more rows
…
